# mean-variance dataset
# 
128x1000 # runs x packets_per_run
2000 # vector length N (indices 0..N-1)
9.98018 0.863731
9.81232 0.78416
9.62553 0.805482
9.28187 1.02087
8.88367 0.734919
8.30295 0.665097
7.99334 0.685988
7.43732 0.70982
6.9356 0.443398
6.61737 0.476257
6.2652 0.52926
5.43534 0.590286
4.55916 0.376726
4.0116 0.367464
3.4459 0.367622
2.98645 0.284878
2.57349 0.234392
2.24693 0.224774
1.91669 0.180722
1.75916 0.160583
3.42433 0.149896
2.60766 0.107299
1.65142 0.0595989
0.969225 0.0413919
0.577972 0.0276502
0.358573 0.0128537
0.235725 0.007437
0.144237 0.0042662
0.106123 0.00310959
0.0853015 0.00222305
0.0641587 0.00199916
0.0483959 0.00126001
0.0407785 0.00101822
0.0324186 0.000818312
0.0251578 0.000731701
0.0183486 0.000393099
0.0177953 0.000438757
0.0131805 0.00016222
0.00969042 0.000153844
0.0101853 0.000229026
0.0974259 0.00817925
0.158588 0.0130689
0.295792 0.0334167
0.411295 0.0289233
0.634471 0.0590742
0.79679 0.057662
0.955056 0.0841332
1.1452 0.114351
1.35205 0.120581
1.57806 0.129987
1.91971 0.170861
2.04129 0.192277
1.86532 0.145423
1.77195 0.127889
1.52513 0.12038
1.40556 0.127718
1.30949 0.111737
1.13572 0.118753
1.04807 0.0936048
0.951403 0.0668693
2.08379 0.082675
2.0256 0.100451
1.84696 0.0868385
1.43828 0.0543133
1.07406 0.0390904
0.776683 0.0269391
0.561043 0.0192235
0.421848 0.0143789
0.319529 0.00843803
0.249613 0.00699998
0.189315 0.00530185
0.143184 0.00421594
0.118804 0.00333512
0.0981937 0.00269674
0.0703072 0.00185033
0.0568735 0.00112604
0.0528288 0.00103636
0.0417326 0.000896942
0.0309736 0.000512964
0.0297877 0.000531878
0.11113 0.00855546
0.138477 0.010359
0.203047 0.0168037
0.268528 0.0214094
0.347004 0.024951
0.470992 0.0345414
0.556599 0.0483868
0.656843 0.0586875
0.88881 0.072236
1.09347 0.0825632
1.34847 0.139099
1.40855 0.105423
1.41006 0.0950566
1.3238 0.124489
1.37484 0.0921246
1.25392 0.10409
1.13515 0.101685
1.13836 0.0743908
1.05272 0.083262
1.02179 0.0668086
2.13934 0.0907798
2.04816 0.0627794
1.86342 0.078422
1.64217 0.056512
1.27995 0.0544953
1.02931 0.0397403
0.795256 0.0252554
0.601554 0.0233069
0.46888 0.0127165
0.362044 0.00960664
0.289042 0.00897212
0.229402 0.00593994
0.191153 0.00515455
0.152934 0.00407541
0.129675 0.00322741
0.0967817 0.00218511
0.0833877 0.00189078
0.068721 0.00150993
0.0586479 0.00124982
0.0488841 0.000878444
0.144566 0.00990205
0.169721 0.0143188
0.2071 0.0172419
0.227574 0.0178641
0.297971 0.0207852
0.364664 0.0272373
0.456266 0.0365402
0.562175 0.0333045
0.676218 0.066009
0.777127 0.0483073
0.945522 0.0697873
1.0808 0.0797296
1.14913 0.093254
1.16243 0.107121
1.16193 0.0866649
1.11531 0.0945306
1.07126 0.0883923
1.04714 0.0806585
0.998751 0.0869604
1.00819 0.0796231
2.02075 0.0756615
2.00861 0.0878578
1.84089 0.0680595
1.64565 0.0623681
1.4009 0.0677095
1.09718 0.0376208
0.91048 0.0314487
0.741606 0.0295537
0.593366 0.0238549
0.456185 0.0146882
0.369051 0.0134731
0.295283 0.00876312
0.245104 0.00574041
0.19953 0.00469313
0.163761 0.00401394
0.132297 0.00224054
0.114567 0.00231826
0.0940354 0.00199589
0.0814138 0.0018465
0.0648435 0.00123773
0.157207 0.00836061
0.194374 0.0143603
0.20573 0.0132822
0.226212 0.0147438
0.2708 0.0227455
0.373249 0.0296927
0.43494 0.0258207
0.502822 0.0499973
0.540518 0.033108
0.688838 0.0589
0.81971 0.0651131
0.914472 0.0817254
0.990739 0.0779399
1.02189 0.0720448
1.01796 0.0759244
0.972898 0.0751437
1.00743 0.0688994
0.970193 0.0942155
0.972784 0.0874361
0.966473 0.0779914
1.99082 0.068739
1.93216 0.0605537
1.77334 0.0682865
1.5803 0.0528298
1.40049 0.0417175
1.16428 0.0408126
0.972618 0.0312116
0.796374 0.0259536
0.660873 0.0252084
0.522933 0.0150979
0.438005 0.0150809
0.347816 0.00832724
0.282087 0.00471312
0.242043 0.00542908
0.201059 0.00440587
0.160532 0.00394285
0.136066 0.0032483
0.109635 0.00223496
0.0916983 0.0016678
0.0826515 0.00172511
0.168041 0.0113002
0.178754 0.0102965
0.23486 0.0197907
0.229279 0.016194
0.284499 0.0225818
0.357184 0.0219885
0.409679 0.0275392
0.473998 0.0312381
0.486715 0.0334471
0.630669 0.0490919
0.727188 0.0539473
0.748866 0.0510707
0.862697 0.0792921
0.905786 0.0624375
0.90421 0.0567869
0.936755 0.0601484
0.937167 0.0599324
0.950543 0.0867896
0.948124 0.0602904
0.927008 0.0911909
1.81622 0.0738543
1.81272 0.0679951
1.68263 0.0564207
1.51369 0.0542265
1.34534 0.0335917
1.20164 0.045883
0.994306 0.0333095
0.842609 0.021629
0.709408 0.024387
0.573012 0.0194151
0.477338 0.0157178
0.401641 0.0118132
0.331537 0.00787294
0.273158 0.00646597
0.226643 0.00552103
0.182912 0.00342531
0.149508 0.002399
0.128044 0.00298701
0.100727 0.00216284
0.0911441 0.00147743
0.191669 0.0119265
0.220091 0.0125628
0.238157 0.0155455
0.256889 0.0190529
0.287724 0.0203851
0.347578 0.0269923
0.382128 0.0318072
0.426043 0.0300121
0.486966 0.0357072
0.54188 0.0386839
0.618198 0.0421773
0.69184 0.0629651
0.789509 0.058561
0.829718 0.0541053
0.853774 0.0556535
0.867519 0.0584482
0.857018 0.0624616
0.835759 0.0777641
0.867601 0.0639527
0.850111 0.0438282
1.70696 0.0599087
1.65483 0.0692107
1.55507 0.0494907
1.43669 0.0486327
1.28376 0.0347806
1.14898 0.0343373
0.987496 0.0304759
0.83112 0.0254246
0.708031 0.0153267
0.623325 0.0150326
0.5091 0.0134421
0.424442 0.0115796
0.363946 0.00939191
0.299112 0.00717674
0.237965 0.00586695
0.201343 0.00370759
0.16446 0.00317224
0.138554 0.00263439
0.114929 0.00220321
0.106657 0.00201687
0.207722 0.011969
0.260142 0.0202899
0.237301 0.0177242
0.262109 0.0166468
0.311454 0.017908
0.347316 0.0310273
0.372418 0.0253363
0.406102 0.0295207
0.460283 0.034835
0.490326 0.035053
0.54598 0.0384696
0.627469 0.0505532
0.724132 0.0449596
0.725592 0.0475526
0.784248 0.061855
0.774284 0.0497062
0.762584 0.06114
0.804695 0.0459177
0.805491 0.0546468
0.779861 0.0484907
1.61157 0.0676758
1.51022 0.0497203
1.43784 0.0505301
1.3333 0.0414174
1.20336 0.0360426
1.08503 0.0301622
0.965401 0.0253146
0.834215 0.0242104
0.69844 0.0230775
0.614188 0.0186715
0.53096 0.0137412
0.431913 0.00898105
0.371962 0.00918027
0.292678 0.00562733
0.255002 0.00611107
0.207355 0.00385573
0.178992 0.00269922
0.146299 0.00238587
0.126807 0.0024587
0.115649 0.00243036
0.241736 0.0183876
0.245003 0.0187566
0.265333 0.0172946
0.292292 0.0206493
0.298381 0.0155044
0.33212 0.0228839
0.365866 0.0250335
0.40428 0.0254181
0.469816 0.0334718
0.482011 0.0333144
0.492732 0.0349605
0.590031 0.0444327
0.630628 0.0393714
0.658661 0.051018
0.746175 0.0522091
0.730161 0.0555833
0.743421 0.0557787
0.784118 0.0492767
0.750073 0.0533348
0.763937 0.0460369
1.47391 0.0573548
1.42332 0.0487112
1.33367 0.0451581
1.2161 0.0439908
1.13186 0.0351148
1.00283 0.0232889
0.917557 0.0241658
0.793473 0.0202284
0.687642 0.0174114
0.586877 0.0132731
0.497175 0.012074
0.428039 0.0106402
0.377014 0.00751344
0.313731 0.00753887
0.250976 0.0042481
0.227252 0.00463439
0.182613 0.00248503
0.152396 0.00270321
0.132831 0.0023371
0.123779 0.00252586
0.267348 0.0179776
0.23705 0.0153444
0.261914 0.0172642
0.283145 0.0189133
0.31584 0.0206039
0.315025 0.0218756
0.377386 0.0227682
0.378103 0.0266233
0.406494 0.0291498
0.440187 0.0303806
0.477398 0.0356971
0.555872 0.0377048
0.585801 0.0377647
0.615738 0.0359651
0.644217 0.0402803
0.689229 0.0504484
0.728134 0.0501819
0.683781 0.0362569
0.722504 0.0451921
0.684847 0.0474796
1.37705 0.0430935
1.29949 0.0321138
1.22891 0.0391297
1.13035 0.0414159
1.04823 0.0262366
0.939629 0.0327517
0.857121 0.0225675
0.749457 0.0204999
0.636169 0.0147427
0.562229 0.0128909
0.47146 0.0108111
0.424792 0.0106928
0.365393 0.00823809
0.313645 0.00626679
0.263216 0.00485496
0.221867 0.00460146
0.199825 0.00311651
0.160414 0.00251748
0.135947 0.00215948
0.116964 0.00219581
0.249086 0.0150512
0.266242 0.0184688
0.271594 0.0167342
0.255995 0.0129626
0.298908 0.0184117
0.342613 0.0201163
0.317617 0.0194151
0.369612 0.024464
0.389482 0.0329212
0.411335 0.0234973
0.4449 0.0291565
0.48952 0.0269321
0.593361 0.0397998
0.584246 0.0354374
0.61375 0.0541329
0.611124 0.0430155
0.63211 0.0404174
0.656904 0.0461209
0.664533 0.0392411
0.654744 0.0375095
1.22964 0.0439721
1.16896 0.0425029
1.12217 0.0353911
1.01862 0.0329159
0.948862 0.0357994
0.871537 0.0236373
0.797177 0.0223291
0.700261 0.0176825
0.628613 0.0144069
0.542838 0.0144961
0.483238 0.0107788
0.400853 0.00905553
0.35612 0.00716087
0.305478 0.00765748
0.256718 0.00597229
0.216396 0.00355692
0.187378 0.00312193
0.156113 0.00300376
0.137862 0.00273114
0.117766 0.00243923
0.281999 0.0188716
0.260609 0.0163658
0.270038 0.0139232
0.284755 0.0192364
0.290217 0.0200178
0.33229 0.0174853
0.331516 0.0159899
0.368524 0.0244745
0.366006 0.0270906
0.401928 0.0244427
0.387095 0.0287619
0.452645 0.0271493
0.518256 0.0423583
0.546629 0.0380547
0.55891 0.0316084
0.604936 0.038118
0.587931 0.0452498
0.596282 0.0347358
0.60822 0.0359516
0.625753 0.0482773
1.14878 0.0441888
1.09386 0.0362969
1.00399 0.0332109
0.925349 0.0263994
0.86002 0.0259068
0.814645 0.0283331
0.721 0.0170474
0.655882 0.0189317
0.571813 0.0150913
0.519787 0.00953161
0.457839 0.0108257
0.388781 0.00806106
0.341687 0.00692227
0.299516 0.00632983
0.250347 0.00391992
0.221756 0.00379651
0.192361 0.00412457
0.151631 0.00243045
0.130146 0.00204778
0.128435 0.00235752
0.291524 0.0170566
0.270883 0.0170763
0.274889 0.015895
0.293171 0.0188452
0.282302 0.0162501
0.335646 0.0221175
0.331981 0.0256394
0.354317 0.0226008
0.354366 0.026784
0.377431 0.0293559
0.384127 0.0292961
0.422386 0.0277007
0.448334 0.0263593
0.489599 0.0312976
0.513515 0.0316728
0.534519 0.0373963
0.531942 0.0331482
0.57655 0.0300673
0.58125 0.0358833
0.564075 0.034709
1.06573 0.0322087
0.987594 0.0249568
0.929665 0.0254925
0.841557 0.0230871
0.766098 0.0153123
0.738372 0.0143139
0.682814 0.0171314
0.613268 0.0122218
0.536004 0.00875931
0.488952 0.0108371
0.419324 0.00954622
0.362603 0.00506073
0.312036 0.00493659
0.274129 0.00596245
0.23846 0.00407216
0.205503 0.00332278
0.187232 0.00354122
0.152555 0.00285203
0.143067 0.00218068
0.11843 0.0020096
0.269462 0.0165153
0.296659 0.0178804
0.286618 0.0144375
0.278649 0.0156479
0.302601 0.0246956
0.325957 0.0223485
0.318482 0.0227923
0.343893 0.0172372
0.335288 0.0157715
0.33687 0.0213506
0.33368 0.0207606
0.411416 0.0280683
0.444432 0.0277786
0.44456 0.0193579
0.461451 0.03196
0.498559 0.0319564
0.509962 0.0352011
0.515487 0.0330966
0.507409 0.0310483
0.490318 0.0249978
0.967099 0.0243366
0.908429 0.0255533
0.834512 0.0247367
0.789022 0.0195397
0.720957 0.0200375
0.662088 0.017987
0.610345 0.0136046
0.554833 0.0137031
0.498591 0.0133239
0.44377 0.00822358
0.402778 0.0096132
0.342079 0.00823938
0.305921 0.00423207
0.264917 0.00404245
0.228679 0.00373012
0.192192 0.00404662
0.173287 0.00287542
0.153726 0.00245545
0.132002 0.00189522
0.114878 0.00238632
0.292922 0.0158574
0.286529 0.0168608
0.294392 0.0159281
0.3041 0.023409
0.302943 0.0198
0.301403 0.0199188
0.310053 0.0194666
0.330503 0.0184325
0.341633 0.0241129
0.340252 0.0190045
0.377193 0.0283727
0.381629 0.0256668
0.379915 0.0246271
0.411394 0.0266452
0.426668 0.0238751
0.457861 0.0272719
0.490314 0.0290657
0.461647 0.0238726
0.47759 0.0246749
0.491372 0.0279986
0.865527 0.0238595
0.812291 0.0207119
0.766395 0.0244947
0.713523 0.0175156
0.656615 0.0158085
0.606971 0.0142591
0.563083 0.0135004
0.502569 0.00888504
0.461894 0.01091
0.404036 0.00716022
0.371424 0.00697762
0.326696 0.00737626
0.274905 0.00502775
0.250515 0.00380485
0.208501 0.00339444
0.186906 0.00335335
0.16656 0.00253368
0.141855 0.00281618
0.125329 0.00186841
0.107006 0.00169585
0.304477 0.0201541
0.311141 0.0217378
0.294027 0.0169027
0.30835 0.0161311
0.271099 0.0160219
0.293988 0.0158915
0.285878 0.0176509
0.3316 0.0170252
0.309002 0.0200067
0.306255 0.0200865
0.330543 0.017911
0.381907 0.0213809
0.376869 0.0227621
0.362973 0.0262783
0.417759 0.0276854
0.422744 0.0227328
0.435292 0.0308469
0.451329 0.0284972
0.471667 0.0231465
0.431244 0.024621
0.797636 0.0218055
0.746682 0.0201534
0.692087 0.0131798
0.650929 0.0161725
0.601113 0.0130215
0.549534 0.0109234
0.512329 0.0121103
0.476406 0.0113643
0.427879 0.00918627
0.374155 0.0064609
0.340681 0.00627229
0.293111 0.00603141
0.270373 0.00478407
0.239208 0.00356414
0.203483 0.00331671
0.173673 0.00293809
0.158682 0.00240833
0.134104 0.00201174
0.118344 0.00205369
0.111948 0.00212367
0.302209 0.0179089
0.276451 0.0142635
0.296121 0.0188564
0.289219 0.0162325
0.297435 0.0170813
0.290919 0.0192107
0.291594 0.0205739
0.272027 0.0190328
0.303088 0.0208819
0.306124 0.0189302
0.315205 0.0182559
0.336767 0.0203876
0.377076 0.0226918
0.368741 0.0199381
0.398108 0.0239004
0.406781 0.0387456
0.370834 0.0192066
0.411984 0.0244182
0.407027 0.021906
0.373467 0.0205637
0.719132 0.0175771
0.652008 0.0197945
0.650084 0.0144422
0.593461 0.0138509
0.547286 0.0119738
0.501544 0.0114538
0.459195 0.0112556
0.415593 0.00842199
0.376153 0.00555147
0.356699 0.0063215
0.315354 0.00494929
0.273401 0.00476338
0.255284 0.00499207
0.222489 0.00381339
0.19231 0.00257684
0.170205 0.00278694
0.14101 0.00188779
0.125777 0.00163451
0.111861 0.0018016
0.100848 0.00163076
0.281474 0.0169701
0.294798 0.0156996
0.294351 0.0173765
0.287135 0.0168886
0.288764 0.0181739
0.28968 0.0199509
0.305061 0.0192588
0.298222 0.0207745
0.282868 0.0182067
0.29033 0.0153684
0.296417 0.0155658
0.310455 0.0189387
0.335339 0.0225264
0.340565 0.0184077
0.348477 0.0167508
0.364104 0.0242641
0.369791 0.0212994
0.400461 0.0236387
0.369669 0.0181594
0.372628 0.0188176
0.658895 0.0143993
0.593034 0.0133041
0.566115 0.0131818
0.528693 0.012526
0.493403 0.0107204
0.458897 0.010386
0.425466 0.00974601
0.380064 0.0065168
0.348259 0.00655568
0.324761 0.00670319
0.297312 0.0057928
0.266965 0.00367049
0.221569 0.00402068
0.201047 0.00254763
0.181855 0.00257167
0.154273 0.00192421
0.137564 0.00235687
0.1186 0.00154121
0.10641 0.00155772
0.0945458 0.00115763
0.286207 0.0198462
0.285124 0.0180608
0.286823 0.0180321
0.311952 0.0177646
0.308795 0.0131684
0.285649 0.0164541
0.297537 0.0185113
0.307777 0.0198654
0.262931 0.01403
0.268676 0.0175767
0.270668 0.0127382
0.286735 0.0141775
0.302014 0.0229326
0.340066 0.0187823
0.311861 0.0192264
0.345924 0.0225875
0.346446 0.024374
0.358343 0.0263307
0.358552 0.0203865
0.333394 0.0206869
0.600891 0.0167729
0.543691 0.0137567
0.515739 0.0132478
0.48008 0.0119221
0.439604 0.00961467
0.409416 0.00816172
0.386341 0.00583085
0.333645 0.00681515
0.320036 0.00561764
0.287174 0.00509155
0.25818 0.00378998
0.240201 0.00298151
0.20997 0.00331213
0.191542 0.00242843
0.169812 0.00229056
0.144801 0.00195069
0.122886 0.00159782
0.111556 0.00147884
0.101424 0.00131448
0.0896244 0.0013785
0.284294 0.0198427
0.291683 0.0170519
0.281149 0.0186666
0.290747 0.019285
0.268184 0.0165547
0.284358 0.0197846
0.276679 0.0165457
0.268282 0.0141985
0.265783 0.0155491
0.276287 0.0131071
0.255436 0.0160685
0.26684 0.0133584
0.308248 0.0180416
0.27987 0.0179784
0.311221 0.0216079
0.327022 0.0191751
0.336508 0.0214857
0.296473 0.0143932
0.319308 0.01862
0.31194 0.0181746
0.564368 0.0158667
0.525554 0.01328
0.466628 0.00864515
0.437774 0.00948584
0.411286 0.00784963
0.372861 0.00739987
0.340988 0.00548504
0.312101 0.00538708
0.291418 0.00573855
0.26669 0.00454538
0.235517 0.0030035
0.214236 0.00335471
0.200431 0.00374105
0.174357 0.00217405
0.156327 0.00216834
0.138235 0.00152698
0.114149 0.00111204
0.112373 0.00153547
0.0939483 0.00142313
0.0845582 0.00124063
0.284593 0.0140812
0.274097 0.0188301
0.279125 0.0160762
0.280969 0.0148858
0.270176 0.0162176
0.284306 0.0148614
0.26304 0.0141631
0.257923 0.0156368
0.258117 0.0175915
0.244669 0.0133643
0.239736 0.0150778
0.26792 0.0152124
0.261034 0.0145355
0.289036 0.017863
0.284313 0.0193316
0.300452 0.0197944
0.283475 0.016601
0.301163 0.0177296
0.280385 0.0130555
0.284226 0.0184749
0.517838 0.0134047
0.471852 0.0114041
0.430365 0.0087378
0.392117 0.00739771
0.361848 0.00602294
0.349174 0.00716395
0.323546 0.00567522
0.286809 0.00485533
0.26016 0.00405914
0.245968 0.00370501
0.218708 0.00295095
0.19134 0.00283962
0.17479 0.00272561
0.157909 0.00269727
0.144016 0.00239489
0.123463 0.00165517
0.114711 0.00153234
0.101775 0.00159629
0.0900122 0.00113103
0.0825295 0.000960213
0.310991 0.0182683
0.285794 0.0197026
0.276401 0.0135728
0.280106 0.0199606
0.264519 0.0157063
0.263975 0.0166793
0.274022 0.015049
0.259603 0.016168
0.261631 0.0130149
0.245954 0.0116314
0.238587 0.0120885
0.246072 0.0157992
0.251198 0.0132409
0.251682 0.0143876
0.28274 0.0168053
0.269405 0.0134229
0.27413 0.0143619
0.297374 0.0177754
0.265116 0.0130854
0.275215 0.0168845
0.479945 0.0127352
0.428508 0.00774016
0.386036 0.00857801
0.349715 0.00686041
0.340081 0.0075435
0.314392 0.0055369
0.286073 0.00546935
0.271477 0.00509678
0.240567 0.00370252
0.22207 0.00377265
0.202217 0.00342173
0.183493 0.00310461
0.16133 0.00236489
0.151226 0.00214158
0.131436 0.00192169
0.116743 0.00178954
0.106339 0.0014603
0.0965913 0.00141422
0.0848842 0.000949342
0.0729657 0.000981569
0.306424 0.0209841
0.266119 0.0141812
0.269324 0.0134126
0.28159 0.0158605
0.25227 0.0152505
0.268617 0.0107416
0.255408 0.0137532
0.242881 0.0127088
0.255925 0.0162787
0.232743 0.0118317
0.221931 0.0121349
0.216971 0.0101398
0.236651 0.014269
0.254267 0.0159503
0.26237 0.0116372
0.256288 0.0147454
0.242173 0.0135061
0.258022 0.0140432
0.255127 0.0174011
0.232583 0.0112925
0.445675 0.0104858
0.386722 0.00799773
0.358599 0.00687796
0.322516 0.00515738
0.310285 0.00689568
0.275162 0.00555608
0.271765 0.00571703
0.251358 0.00371223
0.223304 0.00389402
0.206138 0.003012
0.1833 0.00242084
0.167525 0.00224823
0.153408 0.00268845
0.142017 0.00199452
0.12534 0.00155839
0.10969 0.00144002
0.0937088 0.00100181
0.0843484 0.00124623
0.0742018 0.00107584
0.0646488 0.00076346
0.27439 0.0165931
0.27026 0.0128628
0.267728 0.016347
0.27022 0.013501
0.269734 0.0163988
0.242407 0.0130477
0.235207 0.0131278
0.239475 0.0126639
0.243243 0.0109544
0.236093 0.00999523
0.216408 0.013397
0.215995 0.0135884
0.223594 0.0117117
0.223554 0.0133795
0.238463 0.0134784
0.230292 0.0124602
0.221288 0.0108956
0.241497 0.0132227
0.228521 0.0117916
0.235418 0.0132373
0.404572 0.0094678
0.3514 0.00724853
0.31854 0.00532719
0.30678 0.00689017
0.283419 0.00530471
0.267941 0.00472378
0.240184 0.00460751
0.215543 0.00352814
0.207298 0.00355307
0.185978 0.00266077
0.159727 0.00229737
0.146585 0.00155642
0.140202 0.00210148
0.125677 0.00205912
0.117675 0.00187317
0.105344 0.001335
0.087526 0.000956775
0.0786263 0.00078323
0.06989 0.000691781
0.060559 0.000832447
0.261421 0.0137116
0.258443 0.0161212
0.256373 0.0143131
0.238859 0.0120415
0.244635 0.0116545
0.243541 0.0112545
0.24996 0.0141951
0.256375 0.0136664
0.21814 0.0117117
0.212875 0.0115509
0.207993 0.0111127
0.23402 0.0132549
0.209078 0.01062
0.204122 0.00978367
0.233267 0.0148918
0.216321 0.00944981
0.222896 0.0128309
0.212073 0.0109332
0.21642 0.00952065
0.219949 0.0100597
0.364303 0.00661818
0.314344 0.00655556
0.294527 0.00589838
0.271701 0.00642833
0.254035 0.0046238
0.236892 0.00442754
0.2175 0.00352529
0.196524 0.00259282
0.180059 0.00324529
0.168483 0.00191459
0.156605 0.00233133
0.140129 0.00186834
0.133112 0.00140585
0.115301 0.0013473
0.0978932 0.00101747
0.0866619 0.000969305
0.0792912 0.000808237
0.0739205 0.000870253
0.0631844 0.000786157
0.0556393 0.000710163
0.261615 0.0138954
0.265072 0.0135503
0.251291 0.0159528
0.243422 0.0156263
0.257582 0.0148058
0.2371 0.0109002
0.243629 0.0129207
0.241954 0.0135131
0.221477 0.0123005
0.228256 0.0135029
0.206511 0.0101675
0.201665 0.0101784
0.208747 0.010564
0.206697 0.0111219
0.217864 0.0125909
0.206902 0.0101139
0.195098 0.0101726
0.203567 0.0100781
0.205047 0.0093091
0.206522 0.00933408
0.335844 0.00756515
0.283146 0.00619088
0.276411 0.0053109
0.248773 0.00560904
0.24238 0.00374773
0.221679 0.0034402
0.198881 0.0027256
0.185857 0.00241074
0.170537 0.00273504
0.153367 0.0018119
0.139758 0.0018241
0.134601 0.00208756
0.115156 0.00135694
0.104408 0.00101069
0.091838 0.00124653
0.0792942 0.000833327
0.0709245 0.000721344
0.0594209 0.00068395
0.0564789 0.000582868
0.0501334 0.000557491
0.242694 0.0154923
0.256562 0.013143
0.247946 0.0134595
0.219594 0.0113905
0.232768 0.0121221
0.257287 0.0146586
0.222348 0.0100505
0.216421 0.0125485
0.20872 0.0128067
0.207999 0.00826292
0.186366 0.00855205
0.203939 0.0106752
0.19805 0.00963176
0.192731 0.00995971
0.179962 0.00914572
0.20232 0.00810719
0.199986 0.0102034
0.200179 0.0106512
0.183868 0.00796761
0.171135 0.00887239
0.313843 0.00678098
0.262766 0.00575343
0.252235 0.00523968
0.232834 0.00560669
0.219855 0.00336686
0.199451 0.00344435
0.186073 0.00231812
0.174909 0.00296633
0.155265 0.00234075
0.145987 0.00184602
0.131924 0.00173295
0.118522 0.00204548
0.105906 0.00133621
0.0943458 0.00104154
0.08764 0.000933392
0.0762818 0.000797879
0.0598003 0.000659422
0.0586611 0.000462526
0.0524302 0.000631621
0.0473704 0.000637793
0.258349 0.0116716
0.252358 0.0119424
0.235584 0.0120121
0.249101 0.00981828
0.240396 0.0125496
0.233534 0.012516
0.195655 0.0108408
0.220108 0.0131796
0.212961 0.00839321
0.203488 0.0126552
0.21696 0.0115852
0.198543 0.0110148
0.193021 0.00966787
0.202704 0.0106415
0.183713 0.00977434
0.195696 0.00904313
0.196168 0.0109281
0.187343 0.00785352
0.174605 0.00843301
0.178 0.00935838
0.30198 0.00608427
0.251943 0.00604847
0.231773 0.00433513
0.214295 0.00403829
0.200297 0.00310357
0.186223 0.00344555
0.164558 0.00240534
0.153615 0.00261733
0.145336 0.00202187
0.141413 0.00185929
0.119484 0.0012035
0.105194 0.00113874
0.0982287 0.00116405
0.0824502 0.000864629
0.0734986 0.000810518
0.072069 0.000726466
0.0618145 0.000737843
0.0538199 0.00053677
0.049964 0.000523685
0.040743 0.000417022
0.225291 0.0123948
0.242236 0.0113905
0.240315 0.0157859
0.22601 0.0114266
0.221286 0.0108566
0.216185 0.0105207
0.22024 0.0114956
0.204142 0.0108596
0.197244 0.00934805
0.189227 0.00966653
0.210251 0.0105237
0.176215 0.00843226
0.188759 0.00973131
0.1879 0.00894237
0.190046 0.00924794
0.172867 0.00747389
0.181745 0.00816427
0.170099 0.0094838
0.157865 0.00637859
0.159198 0.00739904
0.273755 0.00614139
0.235285 0.00375494
0.222727 0.00385805
0.198931 0.0044535
0.18646 0.00285658
0.171287 0.00328588
0.147021 0.00206035
0.143761 0.00193176
0.131794 0.00225282
0.122007 0.00156043
0.11002 0.00157996
0.0984801 0.000947731
0.0893638 0.000888591
0.0802698 0.000887795
0.074884 0.000837388
0.0610749 0.000609689
0.0582601 0.000589339
0.0511144 0.000542784
0.0454392 0.000551186
0.0402423 0.000521459
0.214572 0.0150532
0.209345 0.0121193
0.228854 0.0107067
0.208377 0.010823
0.216397 0.0133508
0.21677 0.0122868
0.20493 0.0105595
0.203836 0.0102426
0.187676 0.00898596
0.197214 0.00951288
0.186096 0.00998405
0.179172 0.00945172
0.189711 0.0102807
0.171121 0.0074781
0.174839 0.00960266
0.173843 0.00856111
0.166483 0.00859379
0.151058 0.00671444
0.147181 0.00663007
0.154439 0.00829632
0.264921 0.00553623
0.224039 0.00405424
0.20772 0.00369851
0.184315 0.00338122
0.175561 0.0029196
0.150785 0.00258679
0.14426 0.00209655
0.129358 0.00151975
0.11794 0.00151237
0.109007 0.00144025
0.101404 0.00141357
0.092625 0.00122187
0.0847572 0.00102035
0.0743512 0.000853975
0.06708 0.00067488
0.055998 0.000440325
0.0538285 0.0006681
0.0427815 0.000543078
0.0413612 0.000460722
0.0362779 0.00039466
0.246709 0.0132589
0.244325 0.0114195
0.213369 0.0084732
0.218721 0.0103502
0.210574 0.0107155
0.19146 0.00947133
0.198396 0.0114314
0.21429 0.011769
0.174513 0.00885086
0.180244 0.00931723
0.174225 0.00926712
0.180711 0.00739693
0.183796 0.00893177
0.163154 0.00679982
0.158417 0.00664679
0.161629 0.00766575
0.153499 0.00724596
0.157702 0.00751996
0.145391 0.00578715
0.135179 0.00512785
0.244966 0.00498421
0.213162 0.00357882
0.186901 0.00258758
0.178327 0.00354297
0.158539 0.00226078
0.137331 0.00235368
0.131188 0.00212953
0.125161 0.0016602
0.105194 0.00117691
0.100362 0.0014466
0.0955576 0.00119602
0.082964 0.000850524
0.0752483 0.000751044
0.0656045 0.000691041
0.0589638 0.000581492
0.0522511 0.000499695
0.0469445 0.000438305
0.039059 0.000299917
0.0385013 0.000480591
0.037473 0.000362038
0.21348 0.0085229
0.215714 0.0115842
0.212718 0.011065
0.216677 0.010521
0.20272 0.0126212
0.208296 0.0124138
0.196306 0.010358
0.183503 0.00831902
0.196614 0.00838884
0.187012 0.00883572
0.169217 0.00838605
0.168122 0.00797074
0.163551 0.00857508
0.150808 0.00679897
0.154217 0.00742431
0.162813 0.00751705
0.14639 0.00620807
0.152655 0.00913786
0.147989 0.00767838
0.118711 0.00542383
0.226568 0.004351
0.192553 0.00370104
0.174953 0.00279971
0.163406 0.00298404
0.149194 0.00227633
0.133696 0.00230873
0.116721 0.00160098
0.110857 0.00164679
0.103798 0.00109077
0.0903658 0.000960345
0.0815878 0.00105276
0.0807104 0.000731256
0.0662789 0.000720606
0.0605136 0.000619339
0.0544503 0.000435615
0.0514666 0.000483347
0.0419868 0.000433106
0.0374638 0.000354377
0.0353532 0.000348986
0.0316503 0.000346827
0.220468 0.0101575
0.198398 0.01161
0.204937 0.0109094
0.205069 0.00920962
0.211548 0.010956
0.185689 0.00916485
0.18043 0.00889884
0.19415 0.010906
0.179317 0.0102621
0.16713 0.00859412
0.158153 0.00694281
0.17204 0.0104929
0.165228 0.0074864
0.139443 0.00567194
0.148851 0.00798007
0.14534 0.00644944
0.136726 0.00554304
0.129016 0.00586636
0.123123 0.00500282
0.1241 0.00513258
0.212723 0.00472151
0.183402 0.00328484
0.170988 0.0030123
0.152778 0.00260645
0.143963 0.00343455
0.127578 0.00183279
0.116617 0.00184393
0.10368 0.00143861
0.0971097 0.00131191
0.0848435 0.000921604
0.0823924 0.000834376
0.0713385 0.000745711
0.0627885 0.0006951
0.0537175 0.000629205
0.0502373 0.000460359
0.0492427 0.00046076
0.0408316 0.000380947
0.0357946 0.000282511
0.0329098 0.00032721
0.0288953 0.000269704
0.205501 0.0108646
0.217361 0.0105121
0.197924 0.0107819
0.17301 0.00884183
0.203357 0.00901349
0.188243 0.0095363
0.185427 0.00733668
0.187521 0.00831196
0.175299 0.00885005
0.185853 0.0100044
0.1599 0.00715315
0.149696 0.007602
0.160753 0.00814512
0.135191 0.00638381
0.14289 0.00683108
0.132838 0.00495276
0.127957 0.00504447
0.13467 0.00699257
0.13047 0.0059535
0.123557 0.00633423
0.200177 0.00452643
0.172812 0.00397605
0.156633 0.00269571
0.144905 0.00246628
0.128055 0.00184362
0.125409 0.00178535
0.112516 0.00141546
0.10254 0.00145374
0.086667 0.000979519
0.082266 0.00107674
0.0744715 0.000761477
0.0649198 0.000740079
0.0616717 0.000861686
0.0531878 0.000592115
0.0504824 0.000439255
0.0430795 0.000475863
0.0384889 0.000309699
0.0330096 0.000269168
0.030805 0.000316469
0.0290696 0.000259406
0.186955 0.0101783
0.17809 0.00961746
0.190202 0.00833256
0.192294 0.0080135
0.181025 0.00939057
0.191067 0.0106849
0.171398 0.00880765
0.17317 0.0091364
0.164501 0.0081412
0.167792 0.0070411
0.135967 0.00657134
0.150934 0.00661181
0.134238 0.0059282
0.135336 0.00736636
0.139481 0.00777356
0.123959 0.00598113
0.128176 0.00524255
0.122386 0.00687773
0.114075 0.00420246
0.114397 0.00433863
0.191385 0.00287451
0.169289 0.00313869
0.153854 0.00283998
0.134551 0.0023086
0.127691 0.00229548
0.114973 0.00167303
0.105632 0.00135512
0.0918011 0.0013067
0.0813329 0.000908733
0.0783065 0.000906894
0.0686362 0.000792639
0.0623477 0.000602889
0.0572734 0.00082335
0.0515359 0.000585068
0.0465112 0.000444207
0.039738 0.000477816
0.0339699 0.000339077
0.0338582 0.000326595
0.0288993 0.000197545
0.0273038 0.000255699
0.173978 0.00741984
0.176195 0.00862663
0.180615 0.00840243
0.194629 0.0077841
0.187123 0.00893107
0.180125 0.00977411
0.177518 0.00715337
0.159582 0.00748903
0.161736 0.00578144
0.15502 0.00737929
0.142937 0.00655478
0.150525 0.00708491
0.137886 0.00568987
0.132428 0.00700184
0.123626 0.00590567
0.126115 0.0058039
0.117034 0.00510875
0.113199 0.0045944
0.120432 0.0056107
0.10814 0.00479292
0.188758 0.00437802
0.163667 0.0028302
0.143743 0.00226624
0.126594 0.00218684
0.120637 0.00163945
0.109105 0.0014052
0.0973032 0.0013223
0.0861958 0.00115458
0.0782202 0.000968208
0.0695267 0.000771867
0.0647551 0.000730866
0.0560624 0.00044007
0.050722 0.000512246
0.0453246 0.000504677
0.043671 0.000403458
0.036082 0.000306197
0.0318094 0.000311894
0.0279742 0.000276684
0.0242928 0.000180637
0.0225788 0.000136056
0.18772 0.0093851
0.18107 0.0108887
0.160132 0.00686966
0.184722 0.0102063
0.183317 0.00927199
0.17843 0.00733129
0.167036 0.00870247
0.156189 0.00716859
0.170289 0.008776
0.145711 0.00675198
0.136146 0.00811047
0.13872 0.00600215
0.137876 0.00607241
0.125486 0.00493569
0.125831 0.00563409
0.120036 0.0052584
0.121853 0.00610645
0.127198 0.00677703
0.108958 0.00516942
0.114294 0.00563944
0.176273 0.0035862
0.154485 0.00250787
0.131916 0.00226857
0.119036 0.00217988
0.110999 0.00125021
0.106945 0.00162211
0.0966537 0.00120422
0.0867338 0.00115033
0.0700807 0.000815169
0.0646717 0.000743403
0.0601308 0.000721422
0.0544115 0.00044763
0.047746 0.000499581
0.0429284 0.000536005
0.0366695 0.000330389
0.0360297 0.000371855
0.0292335 0.000266911
0.0282152 0.00022593
0.0246937 0.000203435
0.0218147 0.000163295
0.185192 0.0112509
0.175636 0.00767785
0.165873 0.0103891
0.163019 0.00719413
0.172767 0.00997885
0.168449 0.00836568
0.16496 0.00830584
0.146955 0.00676312
0.160448 0.00761639
0.164844 0.00722589
0.129736 0.00678631
0.130588 0.00604746
0.120458 0.00442275
0.130632 0.00630081
0.129654 0.00702293
0.128767 0.00569128
0.109724 0.00532854
0.115513 0.00508345
0.101196 0.00458667
0.0962215 0.00469339
0.165878 0.00327645
0.144471 0.00240829
0.126356 0.00195668
0.116738 0.00206508
0.110072 0.00164721
0.0993066 0.00133054
0.0880677 0.00108166
0.0785578 0.00121419
0.068147 0.000818248
0.0599205 0.000565249
0.0532041 0.000445796
0.0492207 0.000502112
0.0462988 0.000490988
0.0372822 0.000323024
0.036836 0.000383143
0.0316029 0.000285118
0.0306133 0.000254108
0.0262521 0.000242914
0.0212597 0.000182801
0.0200947 0.000173999
0.169565 0.00593945
0.183297 0.00860028
0.171036 0.00711699
0.171126 0.00858237
0.173139 0.00863927
0.151499 0.00683291
0.143405 0.00590535
0.15771 0.0094023
0.149772 0.00673083
0.132748 0.00532818
0.133975 0.00693393
0.119424 0.00588186
0.12251 0.00596416
0.121444 0.00526458
0.124844 0.00577546
0.113157 0.00548547
0.106802 0.00389327
0.0998634 0.00327786
0.0926021 0.00378934
0.0806348 0.00313758
0.161798 0.0030574
0.143253 0.00230648
0.121969 0.00163865
0.113078 0.00195517
0.100881 0.00146666
0.0925609 0.001466
0.0786782 0.00105015
0.0717445 0.000916268
0.0687567 0.000910334
0.0588818 0.000683248
0.0499278 0.000522412
0.0447544 0.000409867
0.0414805 0.000402643
0.0358231 0.000309154
0.0329377 0.000268181
0.0293193 0.00023792
0.0259853 0.000229666
0.023435 0.000227095
0.0216519 0.000266199
0.0195681 0.000169412
0.162324 0.00743493
0.162839 0.00738159
0.165509 0.00723515
0.156074 0.00682682
0.154417 0.00676723
0.14427 0.00485946
0.165327 0.00754014
0.170258 0.00754065
0.149283 0.00612681
0.120109 0.0047657
0.139893 0.00645442
0.117902 0.00556615
0.115448 0.0045551
0.11845 0.00570818
0.133805 0.0051155
0.0979048 0.00461351
0.100462 0.00426143
0.0969735 0.00385249
0.0964566 0.00365622
0.0927088 0.00229388
0.156434 0.00252622
0.129227 0.00196183
0.115305 0.00219948
0.104586 0.00142269
0.0977073 0.00149656
0.0824929 0.00127598
0.0741392 0.00109258
0.0682647 0.000904461
0.0642466 0.00089814
0.0546174 0.000610957
0.0473082 0.00049657
0.0448896 0.000508002
0.0402027 0.00040526
0.0361684 0.000419521
0.0310505 0.000226624
0.0287666 0.000269825
0.0231444 0.00021058
0.0199342 0.000155307
0.0178099 0.000118342
0.0168581 0.000144908
0.14737 0.00472927
0.143849 0.00503452
0.152253 0.00583076
0.16315 0.00727864
0.152298 0.0072212
0.149384 0.00765057
0.143279 0.00619822
0.139651 0.00722817
0.136728 0.00444511
0.143675 0.00649302
0.130379 0.0049326
0.131664 0.00609203
0.112265 0.0049857
0.108639 0.00444774
0.104092 0.00507807
0.105131 0.00505648
0.0968277 0.00421853
0.0890931 0.00374099
0.0881165 0.00355237
0.0832212 0.00322123
0.147404 0.00349513
0.125915 0.00238575
0.106952 0.00156901
0.101342 0.00188555
0.0867116 0.001217
0.0842238 0.00136678
0.0732899 0.0009585
0.0665748 0.000742866
0.060432 0.000553249
0.0527171 0.000590229
0.046264 0.00057016
0.043039 0.000512623
0.036901 0.000366663
0.0349002 0.000384232
0.0302066 0.000296014
0.0271857 0.000198462
0.0216674 0.000146042
0.0190063 0.000114888
0.0161084 0.000134299
0.0154942 0.000178555
0.142227 0.00683377
0.157655 0.00574086
0.151897 0.00767422
0.144155 0.00880852
0.154948 0.0066246
0.153429 0.0071388
0.135015 0.00708867
0.142653 0.00722144
0.119666 0.00432666
0.126726 0.00609106
0.119778 0.00592188
0.116179 0.00485788
0.112542 0.00404255
0.0990122 0.00364516
0.0979083 0.00451267
0.106035 0.00412133
0.0893464 0.00305217
0.091392 0.00465565
0.0908237 0.00400526
0.0858686 0.00434962
0.145352 0.00311083
0.128909 0.00204612
0.113277 0.0023288
0.101081 0.00152636
0.0897812 0.00139547
0.0770847 0.00113646
0.0679589 0.000993096
0.0631818 0.000800088
0.0572887 0.000734119
0.051698 0.000593647
0.0429371 0.000539597
0.0385924 0.000385775
0.0361557 0.000363917
0.0310207 0.000240425
0.0285719 0.000285363
0.0255365 0.000229814
0.0198877 0.000132536
0.0182975 0.000130085
0.0150141 7.99725e-05
0.0135861 0.000134397
0.143758 0.00497913
0.138302 0.0064529
0.146217 0.00832855
0.141585 0.00612105
0.14337 0.00667133
0.137975 0.00654683
0.143313 0.00573503
0.131861 0.00537685
0.132736 0.00580642
0.122246 0.00383981
0.114499 0.00593477
0.116424 0.00526346
0.108265 0.00446144
0.0936694 0.00379631
0.101551 0.00357837
0.0934831 0.00505368
0.0904875 0.00428423
0.0846245 0.00389776
0.0811901 0.00322329
0.079201 0.00326904
0.138831 0.00242265
0.127588 0.00203019
0.11191 0.00209958
0.0975038 0.00149943
0.0877738 0.0013483
0.0776419 0.00111427
0.0689315 0.00100675
0.0568962 0.000580136
0.0534133 0.000665141
0.0471377 0.000544127
0.0426217 0.000315668
0.0385274 0.00037868
0.0328611 0.000364677
0.0316303 0.000303779
0.0271012 0.000237785
0.0261222 0.000303068
0.0195212 0.000129156
0.0172428 0.000117727
0.0144113 8.75054e-05
0.0137707 0.000113493
0.126761 0.0046948
0.13661 0.00554056
0.152043 0.00587132
0.124604 0.0045802
0.124548 0.00501323
0.130232 0.00366334
0.12839 0.00549165
0.13276 0.00624318
0.127715 0.00581534
0.120429 0.00600805
0.122661 0.00494603
0.104093 0.00448486
0.0944893 0.00405598
0.09856 0.0047636
0.0947954 0.00459011
0.0763139 0.00273793
0.0759523 0.00288953
0.0811588 0.00316505
0.0777742 0.00307112
0.0770808 0.00357326
0.136762 0.00232504
0.114876 0.00177354
0.100377 0.00175101
0.0897698 0.00120516
0.0836387 0.00119427
0.0746802 0.00100006
0.0697842 0.00104546
0.0595161 0.000661731
0.0487491 0.000663577
0.0444823 0.000501061
0.0403606 0.000621794
0.0361271 0.000389069
0.0325522 0.000303577
0.0271642 0.000209273
0.0252439 0.000224001
0.0228227 0.000200782
0.0199869 0.000193747
0.0164934 0.000134738
0.0127563 8.58482e-05
0.0128256 0.000118611
0.13614 0.0058444
0.126577 0.0052888
0.129596 0.00582766
0.132782 0.00580274
0.130495 0.00558858
0.124249 0.00540325
0.127377 0.00536696
0.127013 0.00520547
0.131785 0.00522465
0.116825 0.00430197
0.105028 0.00479193
0.102493 0.00464193
0.106275 0.00363951
0.0951755 0.00393546
0.0901591 0.00475541
0.0780656 0.00274489
0.0734358 0.00212964
0.0811812 0.0035642
0.0832469 0.00379873
0.0748939 0.00288698
0.13381 0.00290181
0.111288 0.00163191
0.0950972 0.00173645
0.0828942 0.00114594
0.0740217 0.00124034
0.0671947 0.000910572
0.0606745 0.000737151
0.057633 0.000822536
0.0475763 0.000467878
0.042018 0.000403079
0.0384929 0.000485576
0.0335981 0.000353135
0.0275882 0.000213824
0.0271332 0.000203972
0.0251521 0.000193346
0.0206086 0.00020665
0.0186665 0.000159437
0.014846 0.000105971
0.0133062 9.11821e-05
0.0130952 0.00013558
0.122012 0.00525965
0.135821 0.00697142
0.142075 0.00678554
0.120126 0.00481681
0.123064 0.00607008
0.122483 0.00577691
0.122575 0.00411337
0.110504 0.00452131
0.125498 0.00482241
0.128729 0.00659725
0.108951 0.00518258
0.091551 0.00343128
0.0917809 0.00502298
0.0864874 0.00393814
0.0884689 0.00329607
0.0817091 0.00296322
0.0786606 0.00226651
0.0810416 0.00366178
0.0761904 0.00334695
0.0608131 0.00255013
0.122443 0.00190161
0.108841 0.00180265
0.0969564 0.0016464
0.0844621 0.00144499
0.0710252 0.000773865
0.062641 0.000631901
0.0572039 0.000844279
0.0526316 0.000524601
0.0452477 0.000628579
0.0395185 0.000351083
0.0368669 0.000321478
0.0311214 0.000213489
0.0314281 0.000312019
0.0267643 0.000224035
0.0215669 0.000156433
0.0206732 0.000168364
0.0172076 0.000143597
0.0160234 0.000130683
0.0124684 7.40968e-05
0.0118682 0.00010693
0.127162 0.00535425
0.128861 0.00363515
0.124504 0.00523415
0.124095 0.00643445
0.120194 0.00561669
0.11161 0.00453102
0.114701 0.00495513
0.109437 0.00438861
0.119302 0.00500724
0.098307 0.00372147
0.106987 0.00457994
0.104621 0.00437655
0.082355 0.0034994
0.0928548 0.00352481
0.0910199 0.0045376
0.0806031 0.00292078
0.0722328 0.0021543
0.0765161 0.00314192
0.0740124 0.00255768
0.0663033 0.00218204
0.121647 0.00237486
0.103483 0.00200029
0.0921453 0.00172906
0.0737826 0.000831122
0.0715852 0.00104948
0.0606539 0.000737342
0.0526956 0.000581955
0.0491223 0.000565432
0.0441422 0.000562597
0.0393628 0.000439862
0.0358061 0.000395341
0.0319477 0.000328617
0.0260456 0.000211183
0.0224821 0.000156059
0.0194527 0.000198853
0.0181262 0.0001465
0.0159166 0.000101674
0.0136162 8.86163e-05
0.0130898 8.40055e-05
0.012102 9.78316e-05
0.120361 0.00390833
0.117789 0.00455829
0.127505 0.00439366
0.126054 0.00636987
0.11223 0.00452064
0.111366 0.00475713
0.10711 0.0045922
0.110879 0.00466063
0.109824 0.00517992
0.11026 0.00400627
0.103044 0.00527767
0.086541 0.00409376
0.08954 0.00373354
0.0909349 0.00367296
0.0916273 0.00401326
0.0848316 0.0026247
0.0732871 0.00223756
0.0794263 0.00269333
0.061054 0.00225717
0.0649542 0.00252225
0.120685 0.00237629
0.0967363 0.00132482
0.0748211 0.00108314
0.0670754 0.000853775
0.0668175 0.000735556
0.0623777 0.000866479
0.0553338 0.000749704
0.0483301 0.000665803
0.04157 0.000385602
0.0384813 0.000424287
0.0329721 0.000334106
0.029443 0.00025008
0.0257771 0.000247982
0.0236039 0.000188605
0.0191011 0.000134275
0.0175408 0.000142294
0.0147815 9.98087e-05
0.0120186 6.97887e-05
0.0116955 7.62798e-05
0.00967055 5.73392e-05
0.120287 0.00544207
0.116859 0.00557199
0.117976 0.00516876
0.121147 0.00638117
0.115018 0.00563333
0.121894 0.00463813
0.111114 0.00431826
0.106972 0.00537425
0.10112 0.00427385
0.0965683 0.00413999
0.102127 0.0048244
0.0844043 0.00305965
0.0897293 0.00482154
0.0727449 0.00254009
0.0710455 0.00278429
0.0842557 0.00363508
0.0727289 0.00284176
0.0643124 0.00265349
0.0681177 0.00245672
0.0544121 0.00187757
0.104625 0.00198004
0.0906264 0.00174578
0.0787563 0.00119183
0.0666887 0.00111437
0.0603765 0.000639778
0.0557969 0.000719674
0.0520552 0.000810147
0.0462082 0.000568099
0.0422341 0.000481102
0.0353237 0.000433081
0.0315185 0.000353687
0.0262813 0.00025236
0.025011 0.0002082
0.0219658 0.000222613
0.0176539 0.000177852
0.0153292 0.000121629
0.0124286 7.6114e-05
0.0122733 5.78572e-05
0.0113764 8.54096e-05
0.00961489 7.59957e-05
3.30443 0.209815
3.26243 0.22111
3.21707 0.129841
3.1675 0.16822
3.20382 0.135959
3.14166 0.167069
3.12776 0.161621
3.13177 0.170467
2.98881 0.126665
2.96479 0.125657
2.69188 0.132239
2.46453 0.118675
2.29624 0.120273
2.16068 0.0904343
2.03861 0.0906994
1.9159 0.0719635
1.82159 0.0763138
1.72823 0.0696286
1.64223 0.061027
1.59025 0.0668355
2.80165 0.102341
2.36344 0.0908164
2.06464 0.0708557
1.79349 0.0622031
1.57672 0.0574246
1.38355 0.0488354
1.23798 0.0402638
1.09225 0.0285104
0.956517 0.0270259
0.842362 0.0219972
0.742424 0.0168055
0.657564 0.0117993
0.570287 0.0112245
0.496567 0.00832075
0.42604 0.0071827
0.366687 0.0059669
0.313474 0.00532644
0.279679 0.00414923
0.248885 0.00412518
0.227717 0.00330842
